@startuml


actor Entrant

Entrant -> Ticket : チケットを作成

activate Ticket
Ticket -> Member : 作業者をアサイン

activate Member
Member -> Member : 作業
Ticket <-- Member : チケットに書き込み
deactivate Member

Entrant <-- Ticket : チケットを閉じる
deactivate Ticket

@enduml